Random Forest – Machine Learning Notes
…
Making Predictions

After all of that, I was finally able to make predictions using the model and test its results.

weapon_pred <-
  augment(forest_fit, analysis_train) |>
  select(WeaponCarryingSchool, .pred_class, .pred_1, .pred_0)

weapon_pred

# A tibble: 14,696 × 4
   WeaponCarryingSchool .pred_class .pred_1 .pred_0
   <fct>                <fct>         <dbl>   <dbl>
 1 0                    0            0.0482   0.952
 2 0                    0            0.0424   0.958
 3 0                    0            0.0214   0.979
 4 0                    0            0.0260   0.974
 5 0                    0            0.137    0.863
 6 0                    0            0.0482   0.952
 7 0                    0            0.0251   0.975
 8 0                    0            0.0251   0.975
 9 0                    0            0.0403   0.960
10 0                    0            0.0521   0.948
# ℹ 14,686 more rows
…
