Classification Tree – Machine Learning Notes
…
Tuning

To prepare for tuning, I created a grid of parameter combinations to explore during cross-validation. For tree depth, I specifically explored values between 2 and 5.

tree_grid <-
  grid_regular(
    cost_complexity(),
    tree_depth(c(2, 5)),
    min_n(),
    levels = 4)

tree_grid

# A tibble: 64 × 3
   cost_complexity tree_depth min_n
             <dbl>      <int> <int>
 1    0.0000000001          2     2
 2    0.0000001             2     2
 3    0.0001                2     2
 4    0.1                   2     2
 5    0.0000000001          3     2
 6    0.0000001             3     2
 7    0.0001                3     2
 8    0.1                   3     2
 9    0.0000000001          4     2
10    0.0000001             4     2
# ℹ 54 more rows
…
carry_fit <- fit(
  weapon_carrying_final_workflow_tree, analysis_train)

carry_fit

saveRDS(carry_fit, here("model_outputs", "tree_fit.rds"))

weapon_pred_tree <-
  augment(carry_fit, analysis_train) |>
  select(WeaponCarryingSchool, .pred_class, .pred_1, .pred_0)

weapon_pred_tree

# A tibble: 14,696 × 4
   WeaponCarryingSchool .pred_class .pred_1 .pred_0
   <fct>                <fct>         <dbl>   <dbl>
 1 0                    0            0.0396   0.960
 2 0                    0            0.0396   0.960
 3 0                    0            0.0396   0.960
 4 0                    0            0.0396   0.960
 5 0                    0            0.0396   0.960
 6 0                    0            0.0396   0.960
 7 0                    0            0.0396   0.960
 8 0                    0            0.0396   0.960
 9 0                    0            0.0396   0.960
10 0                    0            0.0396   0.960
# ℹ 14,686 more rows
…
